Johnson Laura female Amethyst 01/27/1963
Sanders Patricia female Khaki 05/23/1901
Howard Alice female Orchid 05/30/1946
Harris Cheryl female Coral 05/09/1955
Powell Rebecca female Tan 08/23/1940
Kelly Mark male Yellow 07/03/1933
Long Jonathan male Seashell 08/06/1922
King Joe male Smoke 06/02/1924
Cooper Kevin male Turquoise 12/06/1937
Wilson John male Violet 12/23/1916
